Examen Practico M2-Seccion B
…
1. Número de alquileres por barrios y distritos

suppressPackageStartupMessages(library(dplyr))
suppressPackageStartupMessages(library(magrittr))

datos %>% 
  group_by(neighbourhood_group) %>%
  summarize(
    numero = n(),
    porcentaje = round(n()/nrow(datos)*100, 2)
  ) %>%
  arrange(desc(numero))

## # A tibble: 21 x 3
##    neighbourhood_group numero porcentaje
##    <fct>                <int>      <dbl>
##  1 Centro                8913      44.2 
##  2 Salamanca             1403       6.96
##  3 Chamberí              1260       6.25
##  4 Arganzuela            1131       5.61
##  5 Tetuán                 857       4.25
##  6 Carabanchel            713       3.54
##  7 Ciudad Lineal          669       3.32
##  8 Retiro                 659       3.27
##  9 Puente de Vallecas     645       3.2 
## 10 Latina                 616       3.06
## # ... with 11 more rows

datos %>% 
  group_by(neighbourhood_group) %>%
  summarize(
    numero = n(),
    porcentaje = round(n()/nrow(datos)*100, 2)
  ) %>%
  arrange(numero)

## # A tibble: 21 x 3
##    neighbourhood_group   numero porcentaje
##    <fct>                  <int>      <dbl>
##  1 Vicálvaro                 66       0.33
##  2 Villa de Vallecas         95       0.47
##  3 Moratalaz                121       0.6 
##  4 Barajas                  176       0.87
##  5 Villaverde               178       0.88
##  6 Usera                    276       1.37
##  7 Fuencarral - El Pardo    328       1.63
##  8 Hortaleza                353       1.75
##  9 San Blas - Canillejas    507       2.52
## 10 Chamartín                594       2.95
## # ... with 11 more rows
…
El distrito con mayor número de alquileres en Airbnb es el Centro (44%), casi la mitad, seguido, con un número de alquileres mucho menor, por Salamanca, Chamberí y Arganzuela.

Por otro lado, los distritos con menor número de alquileres en Airbnb son Vicálvaro y Villa de Vallecas.

datos %>% 
  group_by(neighbourhood_group, neighbourhood) %>%
  summarize(
    numero = n(),
    porcentaje = round(n()/nrow(datos)*100, 2)
  ) %>%
  arrange(desc(numero))

## `summarise()` has grouped output by 'neighbourhood_group'. You can override using the `.groups` argument.

## # A tibble: 128 x 4
## # Groups:   neighbourhood_group [21]
##    neighbourhood_group neighbourhood   numero porcentaje
##    <fct>               <fct>            <int>      <dbl>
##  1 Centro              Embajadores       2319      11.5 
##  2 Centro              Universidad       1906       9.46
##  3 Centro              Palacio           1437       7.13
##  4 Centro              Sol               1310       6.5 
##  5 Centro              Justicia          1023       5.08
##  6 Centro              Cortes             918       4.55
##  7 Arganzuela          Palos de Moguer    398       1.97
##  8 Chamberí            Trafalgar          373       1.85
##  9 Salamanca           Goya               325       1.61
## 10 Moncloa - Aravaca   Argüelles          311       1.54
## # ... with 118 more rows

datos %>% 
  group_by(neighbourhood_group, neighbourhood) %>%
  summarize(
    numero = n(),
    porcentaje = round(n()/nrow(datos)*100, 2)
  ) %>%
  arrange(numero)

## `summarise()` has grouped output by 'neighbourhood_group'. You can override using the `.groups` argument.

## # A tibble: 128 x 4
## # Groups:   neighbourhood_group [21]
##    neighbourhood_group   neighbourhood  numero porcentaje
##    <fct>                 <fct>           <int>      <dbl>
##  1 Ciudad Lineal         Atalaya             1       0   
##  2 Fuencarral - El Pardo El Pardo            3       0.01
##  3 Moratalaz             Horcajo             3       0.01
##  4 Fuencarral - El Pardo Fuentelareina       5       0.02
##  5 Moncloa - Aravaca     El Plantío          5       0.02
##  6 Moncloa - Aravaca     Valdemarín          5       0.02
##  7 Moratalaz             Pavones             6       0.03
##  8 Villa de Vallecas     Santa Eugenia       8       0.04
##  9 Latina                Cuatro Vientos     10       0.05
## 10 Usera                 Orcasitas          13       0.06
## # ... with 118 more rows
…
2. Diferencias de precios por barrios y distritos

datos %>% 
  group_by(neighbourhood_group, neighbourhood) %>%
  summarize(
    precio_medio = mean(price),
    precio_max = max(price),
    precio_min = min(price),
    variabilidad = sd(price)
  ) %>%
  arrange(desc(precio_medio))

## `summarise()` has grouped output by 'neighbourhood_group'. You can override using the `.groups` argument.

## # A tibble: 128 x 6
## # Groups:   neighbourhood_group [21]
##    neighbourhood_g~ neighbourhood precio_medio precio_max precio_min
##    <fct>            <fct>                <dbl>      <dbl>      <dbl>
##  1 Arganzuela       Atocha                480.       9999         16
##  2 San Blas - Cani~ Hellín                468.       2000         24
##  3 San Blas - Cani~ Canillejas            466.       3000         11
##  4 Villaverde       San Andrés            448.       8000          9
##  5 San Blas - Cani~ Arcos                 429.       3500         12
##  6 Hortaleza        Palomas               400.       6000         33
##  7 San Blas - Cani~ Rosas                 394.       2700         20
##  8 Latina           Lucero                334.       8000         13
##  9 Hortaleza        Piovera               279.       2229         22
## 10 San Blas - Cani~ Simancas              276.       2600          9
## # ... with 118 more rows, and 1 more variable: variabilidad <dbl>

datos %>% 
  group_by(neighbourhood_group, neighbourhood) %>%
  summarize(
    precio_medio = mean(price),
    precio_max = max(price),
    precio_min = min(price),
    variabilidad = sd(price)
  ) %>%
  arrange(precio_medio)

## `summarise()` has grouped output by 'neighbourhood_group'. You can override using the `.groups` argument.

## # A tibble: 128 x 6
## # Groups:   neighbourhood_group [21]
##    neighbourhood_g~ neighbourhood precio_medio precio_max precio_min
##    <fct>            <fct>                <dbl>      <dbl>      <dbl>
##  1 Villaverde       Butarque              31.8         75          9
##  2 Ciudad Lineal    Atalaya               36           36         36
##  3 Latina           Cuatro Vient~         39           75         12
##  4 Barajas          Aeropuerto            40.2         89         18
##  5 Latina           Aluche                40.7        400          9
##  6 Usera            Moscardó              41.1        160         11
##  7 Usera            San Fermín            44          145         12
##  8 Carabanchel      Vista Alegre          46.7        400          9
##  9 Moratalaz        Horcajo               47           55         36
## 10 Moratalaz        Pavones               48.2        146         17
## # ... with 118 more rows, and 1 more variable: variabilidad <dbl>
…
Las habitaciones de hotel son las que poseen un precio medio mayor y una mayor variabilidad en el precio, seguidas por los apartamentos enteros, mientras que las habitaciones compartidas tiene el precio medio más bajo.

De nuevo observamos que existen una gran cantidad de valores outlier en todos los factores.

5. Tipos de habitaciones según los barrios y distritos

datos %>% 
  group_by(neighbourhood_group, room_type) %>%
  summarize(numero = n()) %>%
  arrange(neighbourhood_group, desc(numero))

## `summarise()` has grouped output by 'neighbourhood_group'. You can override using the `.groups` argument.

## # A tibble: 74 x 3
## # Groups:   neighbourhood_group [21]
##    neighbourhood_group room_type       numero
##    <fct>               <fct>            <int>
##  1 Arganzuela          Entire home/apt    593
##  2 Arganzuela          Private room       521
##  3 Arganzuela          Shared room         14
##  4 Arganzuela          Hotel room           3
##  5 Barajas             Private room       117
##  6 Barajas             Entire home/apt     57
##  7 Barajas             Shared room          2
##  8 Carabanchel         Private room       446
##  9 Carabanchel         Entire home/apt    260
## 10 Carabanchel         Shared room          7
## # ... with 64 more rows
…
El número de apartamentos enteros alquilados es mayor, ya que en el distrito con mayor número de alquileres (Centro), en su gran mayoría son apartamentos enteros. En algunos distritos, vemos que destacan las habitaciones privadas por encima de los apartamentos enteros, como Barajas, Carabanchel, Ciudad Lineal o la Latina, por ejemplo. Podríamos confirmar que en ninguno de los distritos el número de habitaciones compartidas o habitaciones de hotel es mayor que el de apartamentos enteros o habitaciones privadas.

Dado que el Centro es el distrito con mayor número de alquileres, vamos a analizar si existen diferencias en el tipo de habitación alquiladas según el barrio.

datos %>% 
  group_by(neighbourhood, room_type) %>%
  filter(neighbourhood_group == "Centro") %>%
  summarise(numero = n()) %>%
  arrange(neighbourhood, desc(numero))

## `summarise()` has grouped output by 'neighbourhood'. You can override using the `.groups` argument.

## # A tibble: 24 x 3
## # Groups:   neighbourhood [6]
##    neighbourhood room_type       numero
##    <fct>         <fct>            <int>
##  1 Cortes        Entire home/apt    684
##  2 Cortes        Private room       199
##  3 Cortes        Hotel room          27
##  4 Cortes        Shared room          8
##  5 Embajadores   Entire home/apt   1648
##  6 Embajadores   Private room       596
##  7 Embajadores   Shared room         46
##  8 Embajadores   Hotel room          29
##  9 Justicia      Entire home/apt    687
## 10 Justicia      Private room       303
## # ... with 14 more rows
…
En el gráfico se ve que, tal y como comentabamos antes, las medianas están en 2 y 1, siendo mayor para los apartamentos enteros. Observamos la existencia de muchos outliers con valores muy altos, debido a lo comentado anteriormente sobre alquileres no vacacionales. Sería conveniente corregir la influencia de estos valores extremos.

7. Número mínimo de noches por barrios y distritos

datos %>% 
  group_by(neighbourhood_group, neighbourhood) %>%
  summarize(media_noches_min = mean(minimum_nights),
            mediana_noches_min = median(minimum_nights),
            maximo = max(minimum_nights),
            minimo = min(minimum_nights)) %>%
  arrange(desc(mediana_noches_min))

## `summarise()` has grouped output by 'neighbourhood_group'. You can override using the `.groups` argument.

## # A tibble: 128 x 6
## # Groups:   neighbourhood_group [21]
##    neighbourhood_g~ neighbourhood media_noches_min mediana_noches_~ maximo
##    <fct>            <fct>                    <dbl>            <dbl>  <dbl>
##  1 Fuencarral - El~ Fuentelareina             8.8                11     11
##  2 Ciudad Lineal    Atalaya                   7                   7      7
##  3 Barajas          Aeropuerto               11.7                 5     30
##  4 Chamartín        El Viso                  12.1                 3    365
##  5 Chamartín        Nueva España              6.49                3     30
##  6 Latina           Cuatro Vient~             9.9                 3     70
##  7 Moncloa - Arava~ Aravaca                  18.5                 3    365
##  8 Moncloa - Arava~ Valdemarín                2.4                 3      3
##  9 Retiro           Estrella                 18.5                 3    300
## 10 Salamanca        Castellana               10.3                 3     89
## # ... with 118 more rows, and 1 more variable: minimo <dbl>
…
Vemos que hay una mayor disponibilidad en las habitaciones de hotel, probablemente relacionado con que su precio medio también es mayor. Por otro lado, las habitaciones privadas tienen menor disponibilidad, las cuales tenían un menor precio medio.

Aunque las habitaciones compartidas también tienen un precio medio bajo, su disponibilidad es mayor. Intuímos que se debe a la menor comodidad que ofrece una habitación compartida en comparación con una habitación privada a un precio similar. El precio medio para las habitaciones privadas era de 80,03€ y para las compartidas 74,43€.

9. Disponibilidad por barrios y distritos

datos %>% 
  group_by(neighbourhood_group, neighbourhood) %>%
  summarise(disponibilidad_media = mean(availability_365)) %>%
  arrange(desc(disponibilidad_media))

## `summarise()` has grouped output by 'neighbourhood_group'. You can override using the `.groups` argument.

## # A tibble: 128 x 3
## # Groups:   neighbourhood_group [21]
##    neighbourhood_group   neighbourhood  disponibilidad_media
##    <fct>                 <fct>                         <dbl>
##  1 San Blas - Canillejas Hellín                         239.
##  2 Fuencarral - El Pardo Fuentelareina                  235.
##  3 San Blas - Canillejas Arcos                          227.
##  4 Chamartín             Nueva España                   226.
##  5 Fuencarral - El Pardo La Paz                         225.
##  6 Puente de Vallecas    San Diego                      223.
##  7 San Blas - Canillejas Salvador                       218.
##  8 Carabanchel           Abrantes                       217.
##  9 Ciudad Lineal         Costillares                    215.
## 10 Latina                Cuatro Vientos                 208.
## # ... with 118 more rows

datos %>% 
  group_by(neighbourhood_group, neighbourhood) %>%
  summarise(disponibilidad_media = mean(availability_365)) %>%
  arrange(disponibilidad_media)

## `summarise()` has grouped output by 'neighbourhood_group'. You can override using the `.groups` argument.

## # A tibble: 128 x 3
## # Groups:   neighbourhood_group [21]
##    neighbourhood_group   neighbourhood     disponibilidad_media
##    <fct>                 <fct>                            <dbl>
##  1 Moratalaz             Pavones                           59.5
##  2 Fuencarral - El Pardo El Pardo                          89.7
##  3 Moratalaz             Media Legua                       97.0
##  4 Ciudad Lineal         San Juan Bautista                118. 
##  5 Fuencarral - El Pardo El Goloso                        119. 
##  6 Villaverde            Butarque                         123. 
##  7 Usera                 Orcasitas                        126. 
##  8 Arganzuela            Chopera                          129. 
##  9 Arganzuela            Delicias                         129. 
## 10 Arganzuela            Imperial                         129. 
## # ... with 118 more rows
…
